^C:\USERS\ADVEM\DESKTOP\20M812\APPLICATION\SOURCE.C
C:\USERS\ADVEM\DESKTOP\20M812\APPLICATION\DEBUG\VC140.PDB
C:\USERS\ADVEM\DESKTOP\20M812\APPLICATION\DEBUG\VC140.IDB
C:\USERS\ADVEM\DESKTOP\20M812\APPLICATION\DEBUG\SOURCE.OBJ
^C:\USERS\ADVEM\DESKTOP\20M812\APPLICATION\PACKAGES\LODEPNG.1.1.0\LIB\NATIVE\SRC\LODEPNG.CPP
C:\USERS\ADVEM\DESKTOP\20M812\APPLICATION\DEBUG\VC140.PDB
C:\USERS\ADVEM\DESKTOP\20M812\APPLICATION\DEBUG\VC140.IDB
C:\USERS\ADVEM\DESKTOP\20M812\APPLICATION\DEBUG\LODEPNG.OBJ
